0
213
355
498
640
782
925
1067
1209
1351
1494
1636
1778
1921
2063
2205
2347
2490
2632
2774
2917
3059
3201
3343
3486
3628
3770
3913
4055
4197
4339
4482
4624
4766
4909
5051
5193
5335
5478
5620
5762
5905
6047
